\relax 
\providecommand\hyper@newdestlabel[2]{}
\providecommand\HyperFirstAtBeginDocument{\AtBeginDocument}
\HyperFirstAtBeginDocument{\ifx\hyper@anchor\@undefined
\global\let\oldcontentsline\contentsline
\gdef\contentsline#1#2#3#4{\oldcontentsline{#1}{#2}{#3}}
\global\let\oldnewlabel\newlabel
\gdef\newlabel#1#2{\newlabelxx{#1}#2}
\gdef\newlabelxx#1#2#3#4#5#6{\oldnewlabel{#1}{{#2}{#3}}}
\AtEndDocument{\ifx\hyper@anchor\@undefined
\let\contentsline\oldcontentsline
\let\newlabel\oldnewlabel
\fi}
\fi}
\global\let\hyper@last\relax 
\gdef\HyperFirstAtBeginDocument#1{#1}
\providecommand*\HyPL@Entry[1]{}
\HyPL@Entry{0<</S/D>>}
\@LN@col{1}
\select@language{bahasa}
\@writefile{toc}{\select@language{bahasa}}
\@writefile{lof}{\select@language{bahasa}}
\@writefile{lot}{\select@language{bahasa}}
\@writefile{toc}{\contentsline {section}{\numberline {I}PENDAHULUAN}{1}{section.1}}
\@LN@col{2}
\@writefile{toc}{\contentsline {section}{\numberline {II}METODE PENYELESAIAN}{1}{section.2}}
\@LN@col{1}
\@writefile{lot}{\contentsline {table}{\numberline {1}{\ignorespaces Semua Kemungkinan Transformasi Warna\relax }}{2}{table.1}}
\providecommand*\caption@xref[2]{\@setref\relax\@undefined{#1}}
\newlabel{tab:semua_kemungkinan_transformasi}{{1}{2}{Semua Kemungkinan Transformasi Warna\relax }{table.1}{}}
\@writefile{lot}{\contentsline {table}{\numberline {2}{\ignorespaces Pengkodean Warna dengan Angka\relax }}{2}{table.2}}
\newlabel{tab:pengkodean_warna}{{2}{2}{Pengkodean Warna dengan Angka\relax }{table.2}{}}
\newlabel{eq:1}{{1}{2}{METODE PENYELESAIAN}{equation.2.1}{}}
\newlabel{eq:2}{{2}{2}{METODE PENYELESAIAN}{equation.2.2}{}}
\@writefile{lot}{\contentsline {table}{\numberline {3}{\ignorespaces Semua Kemungkinan Transformasi Warna Setelah Dikodekan\relax }}{2}{table.3}}
\newlabel{tab:semua_kemungkinan_transformasi_angka}{{3}{2}{Semua Kemungkinan Transformasi Warna Setelah Dikodekan\relax }{table.3}{}}
\@LN@col{2}
\newlabel{eq:3}{{3}{2}{METODE PENYELESAIAN}{equation.2.3}{}}
\newlabel{eq:4}{{4}{2}{METODE PENYELESAIAN}{equation.2.4}{}}
\newlabel{eq:5}{{5}{2}{METODE PENYELESAIAN}{equation.2.5}{}}
\newlabel{eq:6}{{6}{2}{METODE PENYELESAIAN}{equation.2.6}{}}
\newlabel{eq:7}{{7}{2}{METODE PENYELESAIAN}{equation.2.7}{}}
\newlabel{eq:8}{{8}{2}{METODE PENYELESAIAN}{equation.2.8}{}}
\@LN@col{1}
\newlabel{eq:9}{{9}{3}{METODE PENYELESAIAN}{equation.2.9}{}}
\newlabel{eq:10}{{10}{3}{METODE PENYELESAIAN}{equation.2.10}{}}
\newlabel{eq:11}{{11}{3}{METODE PENYELESAIAN}{equation.2.11}{}}
\newlabel{eq:12}{{12}{3}{METODE PENYELESAIAN}{equation.2.12}{}}
\newlabel{eq:13}{{13}{3}{METODE PENYELESAIAN}{equation.2.13}{}}
\newlabel{eq:14}{{14}{3}{METODE PENYELESAIAN}{equation.2.14}{}}
\@LN@col{2}
\@writefile{lof}{\contentsline {figure}{\numberline {1}{\ignorespaces Bagian Matriks Toeplitz pada Matriks Transformasi\relax }}{3}{figure.caption.1}}
\newlabel{fig:matriks_n_5}{{1}{3}{Bagian Matriks Toeplitz pada Matriks Transformasi\relax }{figure.caption.1}{}}
\@writefile{lot}{\contentsline {table}{\numberline {4}{\ignorespaces Kecepatan Maksimal, Minimal, dan Rata-Rata dari Hasil Uji Coba Pengumpulan 12 Kali pada Situs Pengujian Daring Spoj\relax }}{3}{table.4}}
\newlabel{tab:statistik}{{4}{3}{Kecepatan Maksimal, Minimal, dan Rata-Rata dari Hasil Uji Coba Pengumpulan 12 Kali pada Situs Pengujian Daring Spoj\relax }{table.4}{}}
\@writefile{toc}{\contentsline {section}{\numberline {III}UJI COBA DAN ANALISIS}{3}{section.3}}
\@writefile{toc}{\contentsline {subsection}{\numberline {\unhbox \voidb@x \hbox {III-A}}Uji Coba Kebenaran}{3}{subsection.3.1}}
\bibcite{fft-blackbox}{1}
\@LN@col{1}
\@writefile{lof}{\contentsline {figure}{\numberline {3}{\ignorespaces Perbandingan Kinerja Perkalian Matriks, $A$ Perkalian dengan FFT dan $B$ Perkalian dengan Algoritma \textit  {Naive}\relax }}{4}{figure.caption.3}}
\newlabel{figure:kinerja_naive_fft}{{3}{4}{Perbandingan Kinerja Perkalian Matriks, $A$ Perkalian dengan FFT dan $B$ Perkalian dengan Algoritma \textit {Naive}\relax }{figure.caption.3}{}}
\@writefile{lof}{\contentsline {figure}{\numberline {2}{\ignorespaces Hasil Umpan Balik Solusi pada Daring SPOJ dengan Waktu Terendah\relax }}{4}{figure.caption.2}}
\newlabel{figure:submission}{{2}{4}{Hasil Umpan Balik Solusi pada Daring SPOJ dengan Waktu Terendah\relax }{figure.caption.2}{}}
\@writefile{toc}{\contentsline {subsection}{\numberline {\unhbox \voidb@x \hbox {III-B}}Uji Coba Peforma}{4}{subsection.3.2}}
\@writefile{toc}{\contentsline {subsection}{\numberline {\unhbox \voidb@x \hbox {III-C}}Analisis Kompleksitas}{4}{subsection.3.3}}
\@LN@col{2}
\@writefile{toc}{\contentsline {section}{\numberline {IV}KESIMPULAN}{4}{section.4}}
\bibcite{linear-algebra}{2}
\bibcite{numerical-recipes}{3}
\bibcite{cooley-tukey}{4}
\bibcite{cormen}{5}
\bibcite{cp3}{6}
\gdef\minted@oldcachelist{,
  default.pygstyle,
  default-pyg-prefix.pygstyle}
\@LN@col{1}
\@writefile{toc}{\contentsline {section}{DAFTAR PUSTAKA}{5}{section*.5}}
\@LN@col{2}
