N Waktu
500	-1.5918788033
1000	-1.3613510319
1500	-1.0211395752
2000	-1.0182719746
2500	-0.6855239294
3000	-0.6793469864
3500	-0.6814942442
4000	-0.6782214275
4500	-0.3379546177
5000	-0.336386696
5500	-0.3350676519
6000	-0.3372006291
6500	-0.3352085852
7000	-0.3339690017
7500	-0.3322417474
8000	-0.3336720649
8500	0.0292148977
9000	0.0304568225
9500	0.0314779458
10000	0.0317529352
10500	0.0364672023
11000	0.0352892202
11500	0.0343135492
12000	0.0330355319
12500	0.0370968669
13000	0.0363997126
13500	0.0380348808
14000	0.0367901292
14500	0.0355698106
15000	0.0375858428
15500	0.0381932072
16000	0.0403483341
16500	0.3817776641
17000	0.3836028327
17500	0.3849072658
18000	0.3844967811
18500	0.3873663311
19000	0.3875656444
19500	0.3880464671
20000	0.385772096
20500	0.3882923628
21000	0.3856656053
21500	0.3871519672
22000	0.3871177731
22500	0.3874190156
23000	0.3904044494
23500	0.3881509542
24000	0.3891398486
24500	0.3894304803
25000	0.3889930412
25500	0.3897039218
26000	0.392294473
26500	0.3887915433
27000	0.3917859141
27500	0.3922620895
28000	0.3923324853
28500	0.3943690169
29000	0.3929739694
29500	0.4150682142
30000	0.3980386692
30500	0.3961686489
31000	0.3991751214
31500	0.3962021377
32000	0.3998480964
32500	0.397727326
33000	0.7362154155
33500	0.7362804624
34000	0.7364634342
34500	0.7383562009
35000	0.7359372621
35500	0.7344099893
36000	0.7350633656
36500	0.7353535818
37000	0.7375348528
37500	0.7363314728
38000	0.7379301577
38500	0.7337556287
39000	0.7378856879
39500	0.738998602
40000	0.7378374014
40500	0.7393254621
41000	0.7386448599
41500	0.7368476154
42000	0.7400454597
42500	0.7397697493
43000	0.7369558638
43500	0.7373109838
44000	0.7369864232
44500	0.7347857528
45000	0.7390860422
45500	0.7365915324
46000	0.7351145191
46500	0.7404852222
47000	0.7380355962
47500	0.7369278492
48000	0.738441867
48500	0.7382121168
49000	0.7410393456
49500	0.7370780884
50000	0.7407996068
